[0408/194021.419:ERROR:scoped_process_suspend.cc(30)] NtSuspendProcess: An attempt was made to access an exiting process.  (0xc000010a)
[0408/194021.871:ERROR:process_info.cc(116)] ReadProcessMemory bool __cdecl crashpad::`anonymous-namespace'::ReadStruct<struct crashpad::process_types::PEB<struct crashpad::process_types::internal::Traits32>>(void *,unsigned __int64,struct crashpad::process_types::PEB<struct crashpad::process_types::internal::Traits32> *): Only part of a ReadProcessMemory or WriteProcessMemory request was completed. (0x12B)
[0408/194021.871:ERROR:process_info.cc(559)] ReadProcessData failed
[0408/194021.872:ERROR:process_reader_win.cc(233)] ReadMemory at 0x64307dc8 of 12 bytes failed: Only part of a ReadProcessMemory or WriteProcessMemory request was completed. (0x12B)
[0408/194021.872:WARNING:process_snapshot_win.cc(68)] ReadMemory ExceptionInformation failed
[0408/194021.872:WARNING:crash_report_exception_handler.cc(60)] ProcessSnapshotWin::Initialize failed
[0510/134301.743:ERROR:crash_report_database_win.cc(426)] unexpected header
